Great Lakes Fish
…
How many of each species do we have? by region?

Hypothesis

I hypothesize the average number of species will increase by year

I hypothesize the average number of species per lake will increase by year.

This table shows the number of observed species. There are 51 species.

exploratory_data %>%
  count(species)

# A tibble: 51 × 2
   species          n
   <chr>        <int>
 1 Alewife        264
 2 Amercian Eel   130
 3 American Eel    26
 4 Blue Pike      370
 5 Bowfin         184
 6 Buffalo        226
 7 Bullhead        24
 8 Bullheads     1205
 9 Burbot        1214
10 Carp          1565
# … with 41 more rows
…
0.00

17

214

45548

▇▁▁▁▁

fishing %>%
  select (species, grand_total)

# A tibble: 65,706 × 2
   species      grand_total
   <chr>              <dbl>
 1 American Eel           1
 2 American Eel           1
 3 American Eel           1
 4 American Eel           1
 5 American Eel           1
 6 American Eel           1
 7 American Eel           0
 8 American Eel           0
 9 American Eel           0
10 American Eel           0
# … with 65,696 more rows
…
This graph answers my question. It shows which lakes have more species than others. For example, lake Erie seemed to have the most number of species around 1995 but then during the 2000s experienced a decline. It now looks like during 2008 lake Erie and lake Huron had very similar number of species present.

In regards to my hypothesis this graph also provides insight into that. This graph tells us as time progresses, number of species in each lake also progress. However there are some exceptions where the number of species decline during a time period. For example, around 1895 lake superior experienced a decrease in number of species observed. Overall from this graph I can accept my hypothesis that the average number of species will increase over the years. But I cannot say that the species will increase each year, since the data here shows some years species experienced a decline.

In regards to the decline in species some years, I can assume this could be due to natural selection or over fishing.

fishing %>%
  filter(lake == "Erie")

# A tibble: 14,634 × 7
    year lake  species      grand_total comments region            values
   <dbl> <chr> <chr>              <dbl> <chr>    <chr>              <dbl>
 1  1991 Erie  American Eel           1 <NA>     Michigan (MI)          0
 2  1991 Erie  American Eel           1 <NA>     New York (NY)          0
 3  1991 Erie  American Eel           1 <NA>     Ohio (OH)              0
 4  1991 Erie  American Eel           1 <NA>     Pennsylvania (PA)      0
 5  1991 Erie  American Eel           1 <NA>     U.S. Total             0
 6  1991 Erie  American Eel           1 <NA>     Canada (ONT)           1
 7  1992 Erie  American Eel           0 <NA>     Michigan (MI)          0
 8  1992 Erie  American Eel           0 <NA>     New York (NY)          0
 9  1992 Erie  American Eel           0 <NA>     Ohio (OH)              0
10  1992 Erie  American Eel           0 <NA>     Pennsylvania (PA)      0
# … with 14,624 more rows

How many of each species do we have by region?

fishing%>%
  group_by(species) %>%
  summarize(region)

`summarise()` has grouped output by 'species'. You can override using the
`.groups` argument.

# A tibble: 65,706 × 2
# Groups:   species [51]
   species region           
   <chr>   <chr>            
 1 Alewife Green Bay (MI)   
 2 Alewife Mich. Proper (MI)
 3 Alewife MI State Total   
 4 Alewife Green Bay (WI)   
 5 Alewife Mich. Proper (WI)
 6 Alewife WI State Total   
 7 Alewife Illinois (IL)    
 8 Alewife Indiana (IN)     
 9 Alewife U.S. Total       
10 Alewife Green Bay (MI)   
# … with 65,696 more rows

fishing %>%
  group_by(lake) %>%
  summarize(region)

`summarise()` has grouped output by 'lake'. You can override using the
`.groups` argument.

# A tibble: 65,706 × 2
# Groups:   lake [6]
   lake  region           
   <chr> <chr>            
 1 Erie  Michigan (MI)    
 2 Erie  New York (NY)    
 3 Erie  Ohio (OH)        
 4 Erie  Pennsylvania (PA)
 5 Erie  U.S. Total       
 6 Erie  Canada (ONT)     
 7 Erie  Michigan (MI)    
 8 Erie  New York (NY)    
 9 Erie  Ohio (OH)        
10 Erie  Pennsylvania (PA)
# … with 65,696 more rows

fishing %>%
  count(region)

# A tibble: 24 × 2
   region                n
   <chr>             <int>
 1 Canada (ONT)       7479
 2 Georgian Bay (GB)  2445
 3 Green Bay (MI)     2126
 4 Green Bay (WI)     2126
 5 Huron Proper (HP)  2445
 6 Illinois (IL)      2126
 7 Indiana (IN)       2126
 8 MI State Total     2126
 9 Mich. Proper (MI)  2126
10 Mich. Proper (WI)  2126
# … with 14 more rows
…
