…
-   I hypothesize there will be a greater variety of species as time goes on.

This table shows the number of observed species. There are 51 species.


::: {.cell}

```{.r .cell-code}
exploratory_data %>%
  count(species)
```

::: {.cell-output .cell-output-stdout}
```
# A tibble: 51 × 2
   species          n
   <chr>        <int>
 1 Alewife        278
 2 Amercian Eel   144
 3 American Eel    27
 4 Blue Pike      393
 5 Bowfin         180
 6 Buffalo        231
 7 Bullhead        20
 8 Bullheads     1185
 9 Burbot        1282
10 Carp          1610
# … with 41 more rows
```
…
::: {.cell}

```{.r .cell-code}
fishing %>%
  select (species, grand_total)
```

::: {.cell-output .cell-output-stdout}
```
# A tibble: 65,706 × 2
   species      grand_total
   <chr>              <dbl>
 1 American Eel           1
 2 American Eel           1
 3 American Eel           1
 4 American Eel           1
 5 American Eel           1
 6 American Eel           1
 7 American Eel           0
 8 American Eel           0
 9 American Eel           0
10 American Eel           0
# … with 65,696 more rows
```
…
In regards to the decline in species some years, I can assume this could be due to natural selection or over fishing.

# Number of species per year in Lake Erie


::: {.cell}

```{.r .cell-code}
fishing %>%
  filter(lake == "Erie")
```

::: {.cell-output .cell-output-stdout}
```
# A tibble: 14,634 × 7
    year lake  species      grand_total comments region            values
   <dbl> <chr> <chr>              <dbl> <chr>    <chr>              <dbl>
 1  1991 Erie  American Eel           1 <NA>     Michigan (MI)          0
 2  1991 Erie  American Eel           1 <NA>     New York (NY)          0
 3  1991 Erie  American Eel           1 <NA>     Ohio (OH)              0
 4  1991 Erie  American Eel           1 <NA>     Pennsylvania (PA)      0
 5  1991 Erie  American Eel           1 <NA>     U.S. Total             0
 6  1991 Erie  American Eel           1 <NA>     Canada (ONT)           1
 7  1992 Erie  American Eel           0 <NA>     Michigan (MI)          0
 8  1992 Erie  American Eel           0 <NA>     New York (NY)          0
 9  1992 Erie  American Eel           0 <NA>     Ohio (OH)              0
10  1992 Erie  American Eel           0 <NA>     Pennsylvania (PA)      0
# … with 14,624 more rows
```
…
::: {.cell-output .cell-output-stderr}
```
`summarise()` has grouped output by 'species'. You can override using the
`.groups` argument.
```
:::

::: {.cell-output .cell-output-stdout}
```
# A tibble: 65,706 × 2
# Groups:   species [51]
   species region           
   <chr>   <chr>            
 1 Alewife Green Bay (MI)   
 2 Alewife Mich. Proper (MI)
 3 Alewife MI State Total   
 4 Alewife Green Bay (WI)   
 5 Alewife Mich. Proper (WI)
 6 Alewife WI State Total   
 7 Alewife Illinois (IL)    
 8 Alewife Indiana (IN)     
 9 Alewife U.S. Total       
10 Alewife Green Bay (MI)   
# … with 65,696 more rows
```
…
::: {.cell-output .cell-output-stderr}
```
`summarise()` has grouped output by 'lake'. You can override using the
`.groups` argument.
```
:::

::: {.cell-output .cell-output-stdout}
```
# A tibble: 65,706 × 2
# Groups:   lake [6]
   lake  region           
   <chr> <chr>            
 1 Erie  Michigan (MI)    
 2 Erie  New York (NY)    
 3 Erie  Ohio (OH)        
 4 Erie  Pennsylvania (PA)
 5 Erie  U.S. Total       
 6 Erie  Canada (ONT)     
 7 Erie  Michigan (MI)    
 8 Erie  New York (NY)    
 9 Erie  Ohio (OH)        
10 Erie  Pennsylvania (PA)
# … with 65,696 more rows
```
:::

```{.r .cell-code}
fishing %>%
  count(region)
```

::: {.cell-output .cell-output-stdout}
```
# A tibble: 24 × 2
   region                n
   <chr>             <int>
 1 Canada (ONT)       7479
 2 Georgian Bay (GB)  2445
 3 Green Bay (MI)     2126
 4 Green Bay (WI)     2126
 5 Huron Proper (HP)  2445
 6 Illinois (IL)      2126
 7 Indiana (IN)       2126
 8 MI State Total     2126
 9 Mich. Proper (MI)  2126
10 Mich. Proper (WI)  2126
# … with 14 more rows
```
…
