…
    # Data manipulation tools & strategies

    We can look at individual columns in a data set or subsets of columns in a data set. For ex, we are only interested in flipper length and species we can select those columns.


    ::: {.cell}
    
    ```{.r .cell-code}
    penguins %>%
      select (species, body_mass_g)
    ```
    
    ::: {.cell-output .cell-output-stdout}
    ```
    # A tibble: 44 × 2
       species body_mass_g
       <chr>         <dbl>
     1 Gentoo         6050
     2 Gentoo         5800
     3 Gentoo         5550
     4 Gentoo         5500
     5 Gentoo         5850
     6 Gentoo         5950
     7 Gentoo         5700
     8 Gentoo         5350
     9 Gentoo         5550
    10 Gentoo         6300
    # … with 34 more rows
    ```
…
::: {.cell-output .cell-output-stderr}
```
`summarise()` has grouped output by 'species'. You can override using the
`.groups` argument.
```
:::

::: {.cell-output .cell-output-stdout}
```
# A tibble: 44 × 2
# Groups:   species [3]
   species   sex   
   <chr>     <chr> 
 1 Adelie    male  
 2 Adelie    female
 3 Adelie    female
 4 Adelie    male  
 5 Adelie    male  
 6 Adelie    female
 7 Adelie    female
 8 Adelie    female
 9 Adelie    female
10 Chinstrap male  
# … with 34 more rows
```
…
::: {.cell-output .cell-output-stderr}
```
`summarise()` has grouped output by 'island'. You can override using the
`.groups` argument.
```
:::

::: {.cell-output .cell-output-stdout}
```
# A tibble: 44 × 2
# Groups:   island [3]
   island sex  
   <chr>  <chr>
 1 Biscoe male 
 2 Biscoe male 
 3 Biscoe male 
 4 Biscoe male 
 5 Biscoe male 
 6 Biscoe male 
 7 Biscoe male 
 8 Biscoe male 
 9 Biscoe male 
10 Biscoe male 
# … with 34 more rows
```
…
